{
  "users": [
    {
      "id": "12c0",
      "formData": {
        "purchaseCode": "55W2",
        "purchaseName": "Gas",
        "purchaseDate": "2024-01-06",
        "purchaseArea": "Leed, England",
        "productCategory": "Clothing",
        "productName": "Glass",
        "productID": "342"
      }
    },
    {
      "id": "26de",
      "formData": {
        "purchaseCode": "61HHH",
        "purchaseName": "old",
        "purchaseDate": "2024-01-10",
        "purchaseArea": "Zimbabio",
        "productCategory": "Electronic",
        "productName": "computer",
        "productID": "34"
      }
    },
    {
      "id": "cfa9",
      "formData": {
        "purchaseCode": "23th",
        "purchaseName": "Gas",
        "purchaseDate": "2024-01-03",
        "purchaseArea": "Leed, England",
        "productCategory": "Electronic",
        "productName": "computer",
        "productID": "7"
      }
    }
  ]
}